{
	"module": "legacy",
	"data": {
		"materials": [
			{
				"id": "crimsonice",
				"priceMod": 20,
				"tohit": 10,
				"bonus": 3,
				"kind": "ice",
				"noproc": true,
				"level": 5
			},
			{
				"id": "coldsteel",
				"kind": "metal",
				"priceMod": 30,
				"tohit": 9,
				"enchants": 4,
				"bonus": 7,
				"noproc": true,
				"level": 5
			},
			{
				"id": "permafrost",
				"priceMod": 80,
				"bonus": 10,
				"tohit": 11,
				"kind": "ice",
				"noproc": true,
				"level": 7
			}
		],
		"potions": [
			{
				"id": "pot_icecreamevil",
				"name": "ice cream puddle",
				"desc": "Not very attractive, to children or otherwise.",
				"cost": {
					"herbs": 1
				},
				"sell": {
					"gold": 1
				},
				"use": {
					"dot": {
						"id": "icecreamlure",
						"name": "ice cream puddle",
						"duration": 30,
						"mod": {
							"eatchildren.effect.stress": -0.01
						}
					}
				}
			},
			{
				"id": "pot_icecream",
				"name": "Melted ice cream",
				"desc": "Used to be a refreshing treat, now it's just nasty mush.",
				"cost": {
					"herbs": 1
				},
				"sell": {
					"gold": 1
				},
				"use": {
					"dot": {
						"id": "icecream",
						"name": "ice cream low",
						"duration": 30,
						"effect": {
							"hp": 0.01
						}
					}
				}
			}
		],
		"encounters": [
			{
				"id": "enc_blackcat",
				"name": "black cat",
				"desc": "A black cat is an omen to be studied seriously",
				"effect": {
					"unease": "1~4",
					"rage": "2~4",
					"divination.exp": 5,
					"scrying.exp": 5
				},
				"result": {
					"arcana": 0.04
				},
				"mod": {
					"spiritlore.max": "0.05//20/-10"
				}
			},
			{
				"id": "enc_hest_ward",
				"name": "warding charm",
				"desc": "A hanging charm wards away the borgles and grimstalks.",
				"effect": {
					"unease": "1~5",
					"bf": "1~5",
					"charms.exp": 5,
					"enchanting.exp": 5
				},
				"mod": {
					"enchanting.max": "0.05//20/-10",
					"charms.max": "0.05//20/-10"
				}
			},
			{
				"id": "enc_cauldron",
				"name": "bubbling cauldron",
				"desc": "The cauldron bubbles and glows with a odorous brew.",
				"effect": {
					"unease": "0~2",
					"weary": "1~3",
					"bf": "-1~2.5",
					"potions.exp": 5,
					"alchemy.exp": 5,
					"crafting.exp": 5
				},
				"mod": {
					"potions.max": "0.05//20/-10"
				},
				"loot": "hestiabrew"
			},
			{
				"id": "enc_hestia",
				"name": "Hestia",
				"desc": "Hestia has no interest in the world outside Thangmor, but will teach those who come to her.",
				"effect": {
					"unease": "2~4",
					"bf": "-2~3",
					"herbalism.exp": 1
				},
				"result": {
					"potions.exp": 50,
					"arcana": 0.01
				},
				"mod": {
					"scrying.max": "0.05//20/-10",
					"history.max": "0.05//20/-10"
				}
			},
			{
				"id": "hal_oldman",
				"name": "Old Harold",
				"desc": "He keeps ranting about a wolf he saw in the granary.",
				"effect": {
					"bf": 1,
					"weary": 0.5
				},
				"mod": {
					"languages.max": "0.05//20/-10"
				}
			},
			{
				"id": "hal_fox",
				"name": "Fox",
				"desc": "An odd fox squirms its way into a trapdoor.",
				"effect": {
					"unease": 0.5
				},
				"result": {
					"stamina": -0.5
				},
				"mod": {
					"animals.max": "0.05//20/-10"
				}
			},
			{
				"id": "hal_grumpy",
				"name": "Grumpy Granny",
				"desc": "The second you even think about cursing, she appears, soap at the ready.",
				"effect": {
					"unease": "-1~2",
					"gold": -0.1
				},
				"result": {
					"virtue": 1
				}
			},
			{
				"id": "hal_stranger",
				"name": "Outsider",
				"desc": "A man stands just outside the village, visibly shaken. As you approach him, he warns you that something strange is going on in Hallomar.",
				"effect": {
					"madness": "0~2"
				},
				"result": {
					"hal_suspicion": true
				},
				"mod": {
					"history.max": "0.05//20/-10"
				}
			},
			{
				"id": "hal_missing",
				"name": "Hank is Missing",
				"desc": "Everyone claims they just saw him, but you can't find him at all.",
				"effect": {
					"weary": "1~2"
				}
			},
			{
				"id": "hal_age",
				"name": "Berta",
				"desc": "Overnight, she had aged 30 years. By the next day, she was back to her youthful self.",
				"effect": {
					"bf": "0~2",
					"madness": "0~2"
				},
				"mod": {
					"anatomy.max": "0.05//20/-10"
				}
			},
			{
				"id": "enc_hal_hest_talk",
				"name": "talk to hestia",
				"desc": "Hestia is busy concocting a special pumpkin brew.",
				"effect": {
					"bf": "0~2",
					"weary": "0~2",
					"potions.exp": 1
				},
				"loot": {
					"pumpcider": 1
				},
				"result": {
					"pumpcider": true
				},
				"mod": {
					"crafting.max": "0.05//20/-10"
				}
			},
			{
				"id": "en_pumppatch",
				"name": "pumpkin patch",
				"desc": "Hallomar's autumn fields grow some of the largest pumpkins to be found.",
				"effect": {
					"weary": "1~2",
					"rage": "1~2",
					"herbalism.exp": 1,
					"spiritlore.exp": 1
				},
				"loot": {
					"evt_hal_imp": "15%",
					"cobwebs": "0~2",
					"pumpkins": 1
				},
				"mod": {
					"spiritlore.max": "0.05//20/-10"
				}
			}
		],
		"rares": [
			{
				"id": "vorpal_sword",
				"alias": "vorpal",
				"sym": "🎃",
				"name": "vorpal blade",
				"level": 8,
				"type": "weapon",
				"tags": "t_longsword,t_swords",
				"attack": {
					"kind": "slash",
					"damage": "8~10"
				}
			},
			{
				"id": "vorpal_sword2",
				"sym": "🎃",
				"name": "midnight vorpal blade",
				"level": 14,
				"type": "weapon",
				"tags": "t_longsword,t_swords",
				"attack": [
					{
						"name": "snicker-snack",
						"kind": "void",
						"targets": "enemyleader",
						"dmg": "20~40"
					},
					{
						"name": "behead",
						"kind": "void",
						"targets": "flunky",
						"dmg": "50~100"
					},
					{
						"name": "midnight hour",
						"targets": "self",
						"dot": {
							"id": "hal_midnight",
							"name": "midnight hour",
							"duration": 12,
							"mod": {
								"self.defense": 12,
								"self.dodge": 12,
								"self.tohit": 12,
								"physdmg": 12,
								"spelldmg": 12
							}
						}
					}
				]
			},
			{
				"id": "bdagg",
				"sym": "🎃",
				"name": "necrotic dagger",
				"material": "bone",
				"type": "weapon",
				"tags": "t_dagger",
				"tohit": 2,
				"attack": {
					"kind": "pierce",
					"damage": "2~4",
					"dot": {
						"duration": 3,
						"dmg": "2~3",
						"name": "necrosis",
						"kind": "necrotic"
					}
				},
				"cost": 20,
				"level": 3
			},
			{
				"id": "iceorb",
				"sym": "❄️",
				"name": "orb of winters",
				"tags": "t_event,t_orb",
				"hands": 2,
				"desc": "A snowglobe with magical powers. It reminds you of colder days.",
				"level": 10,
				"material": "glass",
				"type": "weapon",
				"enchants": 10,
				"sell": {
					"gold": 100
				},
				"attack": {
					"name": "blizzard",
					"tohit": 10,
					"damage": "8~15",
					"kind": "water",
					"targets": "enemies",
					"dot": {
						"duration": 20,
						"id": "frostbite",
						"kind": "water",
						"dmg": "8~15",
						"mod": {
							"self.speed": -3
						}
					}
				},
				"alter": {
					"mod": {
						"ice.rate": "20%",
						"ice.max": "20%",
						"icelore.rate": 2,
						"water.rate": "20%",
						"water.max": "20%",
						"waterlore.rate": 2,
						"fire.rate": "-80%",
						"fire.max": "-80%"
					}
				}
			},
			{
				"id": "hal_amulet",
				"sym": "🎃",
				"name": "hestia's charm",
				"desc": "Hestia's amulet throbs with a dull purple light.",
				"type": "armor",
				"armor": 2,
				"slot": "neck",
				"alter": {
					"mod": {
						"player.resist.necrotic": 10
					}
				}
			},
			{
				"id": "nymiescharm",
				"sym": "🎃",
				"name": "nymie's charm",
				"desc": "A small figurine of a black cat.",
				"level": 20,
				"type": "armor",
				"slot": "trinket",
				"enchants": 0
			},
			{
				"id": "coldnecklace",
				"name": "coldsteel necklace",
				"desc": "Wearing it makes your thoughts cold and your focus sharp.",
				"unique": true,
				"level": 1,
				"armor": 3,
				"type": "armor",
				"kind": "necklace",
				"slot": "neck",
				"enchants": 10,
				"alter": {
					"mod": {
						"focus.effect.runner.exp": "25%",
						"stress.rate": -0.3
					}
				}
			}
		]
	}
}